semester-modules/Ex20/piezo_drv_tb.vcd
$date
	Sun Nov 09 17:05:18 2025
$end
$version
	ModelSim Version 2020.1
$end
$timescale
	1ps
$end

$scope module piezo_drv_tb $end
$var reg 1 ! clk $end
$var reg 1 " rst_n $end
$var reg 1 # en_steer $end
$var reg 1 $ too_fast $end
$var reg 1 % batt_low $end
$var reg 1 & piezo $end
$var reg 1 ' piezo_n $end

$scope module dut $end
$var parameter 32 ( fast_sim $end
$var parameter 32 ) G6_num_cycles $end
$var parameter 32 * C7_num_cycles $end
$var parameter 32 + E7_num_cycles $end
$var parameter 32 , G7_num_cycles $end
$var wire 1 - clk $end
$var wire 1 . rst_n $end
$var wire 1 / en_steer $end
$var wire 1 0 too_fast $end
$var wire 1 1 batt_low $end
$var reg 1 2 piezo $end
$var reg 1 3 piezo_n $end
$var reg 3 4 state [2:0] $end
$var reg 3 5 nxt_state [2:0] $end
$var reg 25 6 duration_tmr [24:0] $end
$var reg 1 7 duration_tmr_done $end
$var reg 28 8 repeat_tmr [27:0] $end
$var reg 1 9 repeat_tmr_done $end
$var reg 15 : freq_tmr [14:0] $end

$scope begin FAST_DURATION $end
$upscope $end

$scope begin FAST_REPEAT $end
$upscope $end

$scope begin FAST_FREQ $end
$upscope $end
$upscope $end
$upscope $end
$enddefinitions $end
#0
$dumpvars
1!
1"
1#
1$
1%
0&
1'
02
13
bx 4
bx 5
b0 6
07
b0 8
19
b0 :
b1 (
b111110010010000 )
b101110101010001 *
b100101000010001 +
b11111001001000 ,
1-
1.
1/
10
11
$end
#5
0!
0-
#10
1!
1-
b100000 8
09
#15
0!
0-
#20
1!
1-
b1000000 8
#25
0!
0-
#30
1!
1-
b1100000 8
#35
0!
0-
#40
1!
1-
b10000000 8
#45
0!
0-
#50
1!
1-
b10100000 8
#55
0!
0-
#60
1!
1-
b11000000 8
#65
0!
0-
#70
1!
1-
b11100000 8
#75
0!
0-
#80
1!
1-
b100000000 8
#85
0!
0-
#90
1!
1-
b100100000 8
#95
0!
0-
#100
1!
1-
b101000000 8
#105
0!
0-
#110
1!
1-
b101100000 8
#115
0!
0-
#120
1!
1-
b110000000 8
#125
0!
0-
#130
1!
1-
b110100000 8
#135
0!
0-
#140
1!
1-
b111000000 8
#145
0!
0-
#150
1!
1-
b111100000 8
#155
0!
0-
#160
1!
1-
b1000000000 8
#165
0!
0-
#170
1!
1-
b1000100000 8
#175
0!
0-
#180
1!
1-
b1001000000 8
#185
0!
0-
#190
1!
1-
b1001100000 8
#195
0!
0-
#200
1!
1-
b1010000000 8
#205
0!
0-
#210
1!
1-
b1010100000 8
#215
0!
0-
#220
1!
1-
b1011000000 8
#225
0!
0-
#230
1!
1-
b1011100000 8
#235
0!
0-
#240
1!
1-
b1100000000 8
#245
0!
0-
#250
1!
1-
b1100100000 8
#255
0!
0-
#260
1!
1-
b1101000000 8
#265
0!
0-
#270
1!
1-
b1101100000 8
#275
0!
0-
#280
1!
1-
b1110000000 8
#285
0!
0-
#290
1!
1-
b1110100000 8
#295
0!
0-
#300
1!
1-
b1111000000 8
#305
0!
0-
#310
1!
1-
b1111100000 8
#315
0!
0-
#320
1!
1-
b10000000000 8
#325
0!
0-
#330
1!
1-
b10000100000 8
#335
0!
0-
#340
1!
1-
b10001000000 8
#345
0!
0-
#350
1!
1-
b10001100000 8
#355
0!
0-
#360
1!
1-
b10010000000 8
#365
0!
0-
#370
1!
1-
b10010100000 8
#375
0!
0-
#380
1!
1-
b10011000000 8
#385
0!
0-
#390
1!
1-
b10011100000 8
#395
0!
0-
#400
1!
1-
b10100000000 8
#405
0!
0-
#410
1!
1-
b10100100000 8
#415
0!
0-
#420
1!
1-
b10101000000 8
#425
0!
0-
#430
1!
1-
b10101100000 8
#435
0!
0-
#440
1!
1-
b10110000000 8
#445
0!
0-
#450
1!
1-
b10110100000 8
#455
0!
0-
#460
1!
1-
b10111000000 8
#465
0!
0-
#470
1!
1-
b10111100000 8
#475
0!
0-
#480
1!
1-
b11000000000 8
#485
0!
0-
#490
1!
1-
b11000100000 8
#495
0!
0-
#500
1!
1-
b11001000000 8
#505
0!
0-
#510
1!
1-
b11001100000 8
#515
0!
0-
#520
1!
1-
b11010000000 8
#525
0!
0-
#530
1!
1-
b11010100000 8
#535
0!
0-
#540
1!
1-
b11011000000 8
#545
0!
0-
#550
1!
1-
b11011100000 8
#555
0!
0-
#560
1!
1-
b11100000000 8
#565
0!
0-
#570
1!
1-
b11100100000 8
#575
0!
0-
#580
1!
1-
b11101000000 8
#585
0!
0-
#590
1!
1-
b11101100000 8
#595
0!
0-
#600
1!
1-
b11110000000 8
#605
0!
0-
#610
1!
1-
b11110100000 8
#615
0!
0-
#620
1!
1-
b11111000000 8
#625
0!
0-
#630
1!
1-
b11111100000 8
#635
0!
0-
#640
1!
1-
b100000000000 8
#645
0!
0-
#650
1!
1-
b100000100000 8
#655
0!
0-
#660
1!
1-
b100001000000 8
#665
0!
0-
#670
1!
1-
b100001100000 8
#675
0!
0-
#680
1!
1-
b100010000000 8
#685
0!
0-
#690
1!
1-
b100010100000 8
#695
0!
0-
#700
1!
1-
b100011000000 8
#705
0!
0-
#710
1!
1-
b100011100000 8
#715
0!
0-
#720
1!
1-
b100100000000 8
#725
0!
0-
#730
1!
1-
b100100100000 8
#735
0!
0-
#740
1!
1-
b100101000000 8
#745
0!
0-
#750
1!
1-
b100101100000 8
#755
0!
0-
#760
1!
1-
b100110000000 8
#765
0!
0-
#770
1!
1-
b100110100000 8
#775
0!
0-
#780
1!
1-
b100111000000 8
#785
0!
0-
#790
1!
1-
b100111100000 8
#795
0!
0-
#800
1!
1-
b101000000000 8
#805
0!
0-
#810
1!
1-
b101000100000 8
#815
0!
0-
#820
1!
1-
b101001000000 8
#825
0!
0-
#830
1!
1-
b101001100000 8
#835
0!
0-
#840
1!
1-
b101010000000 8
#845
0!
0-
#850
1!
1-
b101010100000 8
#855
0!
0-
#860
1!
1-
b101011000000 8
#865
0!
0-
#870
1!
1-
b101011100000 8
#875
0!
0-
#880
1!
1-
b101100000000 8
#885
0!
0-
#890
1!
1-
b101100100000 8
#895
0!
0-
#900
1!
1-
b101101000000 8
#905
0!
0-
#910
1!
1-
b101101100000 8
#915
0!
0-
#920
1!
1-
b101110000000 8
#925
0!
0-
#930
1!
1-
b101110100000 8
#935
0!
0-
#940
1!
1-
b101111000000 8
#945
0!
0-
#950
1!
1-
b101111100000 8
#955
0!
0-
#960
1!
1-
b110000000000 8
#965
0!
0-
#970
1!
1-
b110000100000 8
#975
0!
0-
#980
1!
1-
b110001000000 8
#985
0!
0-
#990
1!
1-
b110001100000 8
#995
0!
0-
#1000
1!
1-
b110010000000 8
#1005
0!
0-
#1010
1!
1-
b110010100000 8
#1015
0!
0-
#1020
1!
1-
b110011000000 8
#1025
0!
0-
#1030
1!
1-
b110011100000 8
#1035
0!
0-
#1040
1!
1-
b110100000000 8
#1045
0!
0-
#1050
1!
1-
b110100100000 8
#1055
0!
0-
#1060
1!
1-
b110101000000 8
#1065
0!
0-
#1070
1!
1-
b110101100000 8
#1075
0!
0-
#1080
1!
1-
b110110000000 8
#1085
0!
0-
#1090
1!
1-
b110110100000 8
#1095
0!
0-
#1100
1!
1-
b110111000000 8
#1105
0!
0-
#1110
1!
1-
b110111100000 8
#1115
0!
0-
#1120
1!
1-
b111000000000 8
#1125
0!
0-
#1130
1!
1-
b111000100000 8
#1135
0!
0-
#1140
1!
1-
b111001000000 8
#1145
0!
0-
#1150
1!
1-
b111001100000 8
#1155
0!
0-
#1160
1!
1-
b111010000000 8
#1165
0!
0-
#1170
1!
1-
b111010100000 8
#1175
0!
0-
#1180
1!
1-
b111011000000 8
#1185
0!
0-
#1190
1!
1-
b111011100000 8
#1195
0!
0-
#1200
1!
1-
b111100000000 8
#1205
0!
0-
#1210
1!
1-
b111100100000 8
#1215
0!
0-
#1220
1!
1-
b111101000000 8
#1225
0!
0-
#1230
1!
1-
b111101100000 8
#1235
0!
0-
#1240
1!
1-
b111110000000 8
#1245
0!
0-
#1250
1!
1-
b111110100000 8
#1255
0!
0-
#1260
1!
1-
b111111000000 8
#1265
0!
0-
#1270
1!
1-
b111111100000 8
#1275
0!
0-
#1280
1!
1-
b1000000000000 8
#1285
0!
0-
#1290
1!
1-
b1000000100000 8
#1295
0!
0-
#1300
1!
1-
b1000001000000 8
#1305
0!
0-
#1310
1!
1-
b1000001100000 8
#1315
0!
0-
#1320
1!
1-
b1000010000000 8
#1325
0!
0-
#1330
1!
1-
b1000010100000 8
#1335
0!
0-
#1340
1!
1-
b1000011000000 8
#1345
0!
0-
#1350
1!
1-
b1000011100000 8
#1355
0!
0-
#1360
1!
1-
b1000100000000 8
#1365
0!
0-
#1370
1!
1-
b1000100100000 8
#1375
0!
0-
#1380
1!
1-
b1000101000000 8
#1385
0!
0-
#1390
1!
1-
b1000101100000 8
#1395
0!
0-
#1400
1!
1-
b1000110000000 8
#1405
0!
0-
#1410
1!
1-
b1000110100000 8
#1415
0!
0-
#1420
1!
1-
b1000111000000 8
#1425
0!
0-
#1430
1!
1-
b1000111100000 8
#1435
0!
0-
#1440
1!
1-
b1001000000000 8
#1445
0!
0-
#1450
1!
1-
b1001000100000 8
#1455
0!
0-
#1460
1!
1-
b1001001000000 8
#1465
0!
0-
#1470
1!
1-
b1001001100000 8
#1475
0!
0-
#1480
1!
1-
b1001010000000 8
#1485
0!
0-
#1490
1!
1-
b1001010100000 8
#1495
0!
0-
#1500
1!
1-
b1001011000000 8
#1505
0!
0-
#1510
1!
1-
b1001011100000 8
#1515
0!
0-
#1520
1!
1-
b1001100000000 8
#1525
0!
0-
#1530
1!
1-
b1001100100000 8
#1535
0!
0-
#1540
1!
1-
b1001101000000 8
#1545
0!
0-
#1550
1!
1-
b1001101100000 8
#1555
0!
0-
#1560
1!
1-
b1001110000000 8
#1565
0!
0-
#1570
1!
1-
b1001110100000 8
#1575
0!
0-
#1580
1!
1-
b1001111000000 8
#1585
0!
0-
#1590
1!
1-
b1001111100000 8
#1595
0!
0-
#1600
1!
1-
b1010000000000 8
#1605
0!
0-
#1610
1!
1-
b1010000100000 8
#1615
0!
0-
#1620
1!
1-
b1010001000000 8
#1625
0!
0-
#1630
1!
1-
b1010001100000 8
#1635
0!
0-
#1640
1!
1-
b1010010000000 8
#1645
0!
0-
#1650
1!
1-
b1010010100000 8
#1655
0!
0-
#1660
1!
1-
b1010011000000 8
#1665
0!
0-
#1670
1!
1-
b1010011100000 8
#1675
0!
0-
#1680
1!
1-
b1010100000000 8
#1685
0!
0-
#1690
1!
1-
b1010100100000 8
#1695
0!
0-
#1700
1!
1-
b1010101000000 8
#1705
0!
0-
#1710
1!
1-
b1010101100000 8
#1715
0!
0-
#1720
1!
1-
b1010110000000 8
#1725
0!
0-
#1730
1!
1-
b1010110100000 8
#1735
0!
0-
#1740
1!
1-
b1010111000000 8
#1745
0!
0-
#1750
1!
1-
b1010111100000 8
#1755
0!
0-
#1760
1!
1-
b1011000000000 8
#1765
0!
0-
#1770
1!
1-
b1011000100000 8
#1775
0!
0-
#1780
1!
1-
b1011001000000 8
#1785
0!
0-
#1790
1!
1-
b1011001100000 8
#1795
0!
0-
#1800
1!
1-
b1011010000000 8
#1805
0!
0-
#1810
1!
1-
b1011010100000 8
#1815
0!
0-
#1820
1!
1-
b1011011000000 8
#1825
0!
0-
#1830
1!
1-
b1011011100000 8
#1835
0!
0-
#1840
1!
1-
b1011100000000 8
#1845
0!
0-
#1850
1!
1-
b1011100100000 8
#1855
0!
0-
#1860
1!
1-
b1011101000000 8
#1865
0!
0-
#1870
1!
1-
b1011101100000 8
#1875
0!
0-
#1880
1!
1-
b1011110000000 8
#1885
0!
0-
#1890
1!
1-
b1011110100000 8
#1895
0!
0-
#1900
1!
1-
b1011111000000 8
#1905
0!
0-
#1910
1!
1-
b1011111100000 8
#1915
0!
0-
#1920
1!
1-
b1100000000000 8
#1925
0!
0-
#1930
1!
1-
b1100000100000 8
#1935
0!
0-
#1940
1!
1-
b1100001000000 8
#1945
0!
0-
#1950
1!
1-
b1100001100000 8
#1955
0!
0-
#1960
1!
1-
b1100010000000 8
#1965
0!
0-
#1970
1!
1-
b1100010100000 8
#1975
0!
0-
#1980
1!
1-
b1100011000000 8
#1985
0!
0-
#1990
1!
1-
b1100011100000 8
#1995
0!
0-
#2000
1!
1-
b1100100000000 8
#2005
0!
0-
#2010
1!
1-
b1100100100000 8
#2015
0!
0-
#2020
1!
1-
b1100101000000 8
#2025
0!
0-
#2030
1!
1-
b1100101100000 8
#2035
0!
0-
#2040
1!
1-
b1100110000000 8
#2045
0!
0-
#2050
1!
1-
b1100110100000 8
#2055
0!
0-
#2060
1!
1-
b1100111000000 8
#2065
0!
0-
#2070
1!
1-
b1100111100000 8
#2075
0!
0-
#2080
1!
1-
b1101000000000 8
#2085
0!
0-
#2090
1!
1-
b1101000100000 8
#2095
0!
0-
#2100
1!
1-
b1101001000000 8
#2105
0!
0-
#2110
1!
1-
b1101001100000 8
#2115
0!
0-
#2120
1!
1-
b1101010000000 8
#2125
0!
0-
#2130
1!
1-
b1101010100000 8
#2135
0!
0-
#2140
1!
1-
b1101011000000 8
#2145
0!
0-
#2150
1!
1-
b1101011100000 8
#2155
0!
0-
#2160
1!
1-
b1101100000000 8
#2165
0!
0-
#2170
1!
1-
b1101100100000 8
#2175
0!
0-
#2180
1!
1-
b1101101000000 8
#2185
0!
0-
#2190
1!
1-
b1101101100000 8
#2195
0!
0-
#2200
1!
1-
b1101110000000 8
#2205
0!
0-
#2210
1!
1-
b1101110100000 8
#2215
0!
0-
#2220
1!
1-
b1101111000000 8
#2225
0!
0-
#2230
1!
1-
b1101111100000 8
#2235
0!
0-
#2240
1!
1-
b1110000000000 8
#2245
0!
0-
#2250
1!
1-
b1110000100000 8
#2255
0!
0-
#2260
1!
1-
b1110001000000 8
#2265
0!
0-
#2270
1!
1-
b1110001100000 8
#2275
0!
0-
#2280
1!
1-
b1110010000000 8
#2285
0!
0-
#2290
1!
1-
b1110010100000 8
#2295
0!
0-
#2300
1!
1-
b1110011000000 8
#2305
0!
0-
#2310
1!
1-
b1110011100000 8
#2315
0!
0-
#2320
1!
1-
b1110100000000 8
#2325
0!
0-
#2330
1!
1-
b1110100100000 8
#2335
0!
0-
#2340
1!
1-
b1110101000000 8
#2345
0!
0-
#2350
1!
1-
b1110101100000 8
#2355
0!
0-
#2360
1!
1-
b1110110000000 8
#2365
0!
0-
#2370
1!
1-
b1110110100000 8
#2375
0!
0-
#2380
1!
1-
b1110111000000 8
#2385
0!
0-
#2390
1!
1-
b1110111100000 8
#2395
0!
0-
#2400
1!
1-
b1111000000000 8
#2405
0!
0-
#2410
1!
1-
b1111000100000 8
#2415
0!
0-
#2420
1!
1-
b1111001000000 8
#2425
0!
0-
#2430
1!
1-
b1111001100000 8
#2435
0!
0-
#2440
1!
1-
b1111010000000 8
#2445
0!
0-
#2450
1!
1-
b1111010100000 8
#2455
0!
0-
#2460
1!
1-
b1111011000000 8
#2465
0!
0-
#2470
1!
1-
b1111011100000 8
#2475
0!
0-
#2480
1!
1-
b1111100000000 8
#2485
0!
0-
#2490
1!
1-
b1111100100000 8
#2495
0!
0-
#2500
1!
1-
b1111101000000 8
#2505
0!
0-
#2510
1!
1-
b1111101100000 8
#2515
0!
0-
#2520
1!
1-
b1111110000000 8
#2525
0!
0-
#2530
1!
1-
b1111110100000 8
#2535
0!
0-
#2540
1!
1-
b1111111000000 8
#2545
0!
0-
#2550
1!
1-
b1111111100000 8
#2555
0!
0-
#2560
1!
1-
b10000000000000 8
#2565
0!
0-
#2570
1!
1-
b10000000100000 8
#2575
0!
0-
#2580
1!
1-
b10000001000000 8
#2585
0!
0-
#2590
1!
1-
b10000001100000 8
#2595
0!
0-
#2600
1!
1-
b10000010000000 8
#2605
0!
0-
#2610
1!
1-
b10000010100000 8
#2615
0!
0-
#2620
1!
1-
b10000011000000 8
#2625
0!
0-
#2630
1!
1-
b10000011100000 8
#2635
0!
0-
#2640
1!
1-
b10000100000000 8
#2645
0!
0-
#2650
1!
1-
b10000100100000 8
#2655
0!
0-
#2660
1!
1-
b10000101000000 8
#2665
0!
0-
#2670
1!
1-
b10000101100000 8
#2675
0!
0-
#2680
1!
1-
b10000110000000 8
#2685
0!
0-
#2690
1!
1-
b10000110100000 8
#2695
0!
0-
#2700
1!
1-
b10000111000000 8
#2705
0!
0-
#2710
1!
1-
b10000111100000 8
#2715
0!
0-
#2720
1!
1-
b10001000000000 8
#2725
0!
0-
#2730
1!
1-
b10001000100000 8
#2735
0!
0-
#2740
1!
1-
b10001001000000 8
#2745
0!
0-
#2750
1!
1-
b10001001100000 8
#2755
0!
0-
#2760
1!
1-
b10001010000000 8
#2765
0!
0-
#2770
1!
1-
b10001010100000 8
#2775
0!
0-
#2780
1!
1-
b10001011000000 8
#2785
0!
0-
#2790
1!
1-
b10001011100000 8
#2795
0!
0-
#2800
1!
1-
b10001100000000 8
#2805
0!
0-
#2810
1!
1-
b10001100100000 8
#2815
0!
0-
#2820
1!
1-
b10001101000000 8
#2825
0!
0-
#2830
1!
1-
b10001101100000 8
#2835
0!
0-
#2840
1!
1-
b10001110000000 8
#2845
0!
0-
#2850
1!
1-
b10001110100000 8
#2855
0!
0-
#2860
1!
1-
b10001111000000 8
#2865
0!
0-
#2870
1!
1-
b10001111100000 8
#2875
0!
0-
#2880
1!
1-
b10010000000000 8
#2885
0!
0-
#2890
1!
1-
b10010000100000 8
#2895
0!
0-
#2900
1!
1-
b10010001000000 8
#2905
0!
0-
#2910
1!
1-
b10010001100000 8
#2915
0!
0-
#2920
1!
1-
b10010010000000 8
#2925
0!
0-
#2930
1!
1-
b10010010100000 8
#2935
0!
0-
#2940
1!
1-
b10010011000000 8
#2945
0!
0-
#2950
1!
1-
b10010011100000 8
#2955
0!
0-
#2960
1!
1-
b10010100000000 8
#2965
0!
0-
#2970
1!
1-
b10010100100000 8
#2975
0!
0-
#2980
1!
1-
b10010101000000 8
#2985
0!
0-
#2990
1!
1-
b10010101100000 8
#2995
0!
0-
#3000
1!
1-
b10010110000000 8
#3005
0!
0-
#3010
1!
1-
b10010110100000 8
#3015
0!
0-
#3020
1!
1-
b10010111000000 8
#3025
0!
0-
#3030
1!
1-
b10010111100000 8
#3035
0!
0-
#3040
1!
1-
b10011000000000 8
#3045
0!
0-
#3050
1!
1-
b10011000100000 8
#3055
0!
0-
#3060
1!
1-
b10011001000000 8
#3065
0!
0-
#3070
1!
1-
b10011001100000 8
#3075
0!
0-
#3080
1!
1-
b10011010000000 8
#3085
0!
0-
#3090
1!
1-
b10011010100000 8
#3095
0!
0-
#3100
1!
1-
b10011011000000 8
#3105
0!
0-
#3110
1!
1-
b10011011100000 8
#3115
0!
0-
#3120
1!
1-
b10011100000000 8
#3125
0!
0-
#3130
1!
1-
b10011100100000 8
#3135
0!
0-
#3140
1!
1-
b10011101000000 8
#3145
0!
0-
#3150
1!
1-
b10011101100000 8
#3155
0!
0-
#3160
1!
1-
b10011110000000 8
#3165
0!
0-
#3170
1!
1-
b10011110100000 8
#3175
0!
0-
#3180
1!
1-
b10011111000000 8
#3185
0!
0-
#3190
1!
1-
b10011111100000 8
#3195
0!
0-
#3200
1!
1-
b10100000000000 8
#3205
0!
0-
#3210
1!
1-
b10100000100000 8
#3215
0!
0-
#3220
1!
1-
b10100001000000 8
#3225
0!
0-
#3230
1!
1-
b10100001100000 8
#3235
0!
0-
#3240
1!
1-
b10100010000000 8
#3245
0!
0-
#3250
1!
1-
b10100010100000 8
#3255
0!
0-
#3260
1!
1-
b10100011000000 8
#3265
0!
0-
#3270
1!
1-
b10100011100000 8
#3275
0!
0-
#3280
1!
1-
b10100100000000 8
#3285
0!
0-
#3290
1!
1-
b10100100100000 8
#3295
0!
0-
#3300
1!
1-
b10100101000000 8
#3305
0!
0-
#3310
1!
1-
b10100101100000 8
#3315
0!
0-
#3320
1!
1-
b10100110000000 8
#3325
0!
0-
#3330
1!
1-
b10100110100000 8
#3335
0!
0-
#3340
1!
1-
b10100111000000 8
#3345
0!
0-
#3350
1!
1-
b10100111100000 8
#3355
0!
0-
#3360
1!
1-
b10101000000000 8
#3365
0!
0-
#3370
1!
1-
b10101000100000 8
#3375
0!
0-
#3380
1!
1-
b10101001000000 8
#3385
0!
0-
#3390
1!
1-
b10101001100000 8
#3395
0!
0-
#3400
1!
1-
b10101010000000 8
#3405
0!
0-
#3410
1!
1-
b10101010100000 8
#3415
0!
0-
#3420
1!
1-
b10101011000000 8
#3425
0!
0-
#3430
1!
1-
b10101011100000 8
#3435
0!
0-
#3440
1!
1-
b10101100000000 8
#3445
0!
0-
#3450
1!
1-
b10101100100000 8
#3455
0!
0-
#3460
1!
1-
b10101101000000 8
#3465
0!
0-
#3470
1!
1-
b10101101100000 8
#3475
0!
0-
#3480
1!
1-
b10101110000000 8
#3485
0!
0-
#3490
1!
1-
b10101110100000 8
#3495
0!
0-
#3500
1!
1-
b10101111000000 8
#3505
0!
0-
#3510
1!
1-
b10101111100000 8
#3515
0!
0-
#3520
1!
1-
b10110000000000 8
#3525
0!
0-
#3530
1!
1-
b10110000100000 8
#3535
0!
0-
#3540
1!
1-
b10110001000000 8
#3545
0!
0-
#3550
1!
1-
b10110001100000 8
#3555
0!
0-
#3560
1!
1-
b10110010000000 8
#3565
0!
0-
#3570
1!
1-
b10110010100000 8
#3575
0!
0-
#3580
1!
1-
b10110011000000 8
#3585
0!
0-
#3590
1!
1-
b10110011100000 8
#3595
0!
0-
#3600
1!
1-
b10110100000000 8
#3605
0!
0-
#3610
1!
1-
b10110100100000 8
#3615
0!
0-
#3620
1!
1-
b10110101000000 8
#3625
0!
0-
#3630
1!
1-
b10110101100000 8
#3635
0!
0-
#3640
1!
1-
b10110110000000 8
#3645
0!
0-
#3650
1!
1-
b10110110100000 8
#3655
0!
0-
#3660
1!
1-
b10110111000000 8
#3665
0!
0-
#3670
1!
1-
b10110111100000 8
#3675
0!
0-
#3680
1!
1-
b10111000000000 8
#3685
0!
0-
#3690
1!
1-
b10111000100000 8
#3695
0!
0-
#3700
1!
1-
b10111001000000 8
#3705
0!
0-
#3710
1!
1-
b10111001100000 8
#3715
0!
0-
#3720
1!
1-
b10111010000000 8
#3725
0!
0-
#3730
1!
1-
b10111010100000 8
#3735
0!
0-
#3740
1!
1-
b10111011000000 8
#3745
0!
0-
#3750
1!
1-
b10111011100000 8
#3755
0!
0-
#3760
1!
1-
b10111100000000 8
#3765
0!
0-
#3770
1!
1-
b10111100100000 8
#3775
0!
0-
#3780
1!
1-
b10111101000000 8
#3785
0!
0-
#3790
1!
1-
b10111101100000 8
#3795
0!
0-
#3800
1!
1-
b10111110000000 8
#3805
0!
0-
#3810
1!
1-
b10111110100000 8
#3815
0!
0-
#3820
1!
1-
b10111111000000 8
#3825
0!
0-
#3830
1!
1-
b10111111100000 8
#3835
0!
0-
#3840
1!
1-
b11000000000000 8
#3845
0!
0-
#3850
1!
1-
b11000000100000 8
#3855
0!
0-
#3860
1!
1-
b11000001000000 8
#3865
0!
0-
#3870
1!
1-
b11000001100000 8
#3875
0!
0-
#3880
1!
1-
b11000010000000 8
#3885
0!
0-
#3890
1!
1-
b11000010100000 8
#3895
0!
0-
#3900
1!
1-
b11000011000000 8
#3905
0!
0-
#3910
1!
1-
b11000011100000 8
#3915
0!
0-
#3920
1!
1-
b11000100000000 8
#3925
0!
0-
#3930
1!
1-
b11000100100000 8
#3935
0!
0-
#3940
1!
1-
b11000101000000 8
#3945
0!
0-
#3950
1!
1-
b11000101100000 8
#3955
0!
0-
#3960
1!
1-
b11000110000000 8
#3965
0!
0-
#3970
1!
1-
b11000110100000 8
#3975
0!
0-
#3980
1!
1-
b11000111000000 8
#3985
0!
0-
#3990
1!
1-
b11000111100000 8
#3995
0!
0-
#4000
1!
1-
b11001000000000 8
#4005
0!
0-
#4010
1!
1-
b11001000100000 8
#4015
0!
0-
#4020
1!
1-
b11001001000000 8
#4025
0!
0-
#4030
1!
1-
b11001001100000 8
#4035
0!
0-
#4040
1!
1-
b11001010000000 8
#4045
0!
0-
#4050
1!
1-
b11001010100000 8
#4055
0!
0-
#4060
1!
1-
b11001011000000 8
#4065
0!
0-
#4070
1!
1-
b11001011100000 8
#4075
0!
0-
#4080
1!
1-
b11001100000000 8
#4085
0!
0-
#4090
1!
1-
b11001100100000 8
#4095
0!
0-
#4100
1!
1-
b11001101000000 8
#4105
0!
0-
#4110
1!
1-
b11001101100000 8
#4115
0!
0-
#4120
1!
1-
b11001110000000 8
#4125
0!
0-
#4130
1!
1-
b11001110100000 8
#4135
0!
0-
#4140
1!
1-
b11001111000000 8
#4145
0!
0-
#4150
1!
1-
b11001111100000 8
#4155
0!
0-
#4160
1!
1-
b11010000000000 8
#4165
0!
0-
#4170
1!
1-
b11010000100000 8
#4175
0!
0-
#4180
1!
1-
b11010001000000 8
#4185
0!
0-
#4190
1!
1-
b11010001100000 8
#4195
0!
0-
#4200
1!
1-
b11010010000000 8
#4205
0!
0-
#4210
1!
1-
b11010010100000 8
#4215
0!
0-
#4220
1!
1-
b11010011000000 8
#4225
0!
0-
#4230
1!
1-
b11010011100000 8
#4235
0!
0-
#4240
1!
1-
b11010100000000 8
#4245
0!
0-
#4250
1!
1-
b11010100100000 8
#4255
0!
0-
#4260
1!
1-
b11010101000000 8
#4265
0!
0-
#4270
1!
1-
b11010101100000 8
#4275
0!
0-
#4280
1!
1-
b11010110000000 8
#4285
0!
0-
#4290
1!
1-
b11010110100000 8
#4295
0!
0-
#4300
1!
1-
b11010111000000 8
#4305
0!
0-
#4310
1!
1-
b11010111100000 8
#4315
0!
0-
#4320
1!
1-
b11011000000000 8
#4325
0!
0-
#4330
1!
1-
b11011000100000 8
#4335
0!
0-
#4340
1!
1-
b11011001000000 8
#4345
0!
0-
#4350
1!
1-
b11011001100000 8
#4355
0!
0-
#4360
1!
1-
b11011010000000 8
#4365
0!
0-
#4370
1!
1-
b11011010100000 8
#4375
0!
0-
#4380
1!
1-
b11011011000000 8
#4385
0!
0-
#4390
1!
1-
b11011011100000 8
#4395
0!
0-
#4400
1!
1-
b11011100000000 8
#4405
0!
0-
#4410
1!
1-
b11011100100000 8
#4415
0!
0-
#4420
1!
1-
b11011101000000 8
#4425
0!
0-
#4430
1!
1-
b11011101100000 8
#4435
0!
0-
#4440
1!
1-
b11011110000000 8
#4445
0!
0-
#4450
1!
1-
b11011110100000 8
#4455
0!
0-
#4460
1!
1-
b11011111000000 8
#4465
0!
0-
#4470
1!
1-
b11011111100000 8
#4475
0!
0-
#4480
1!
1-
b11100000000000 8
#4485
0!
0-
#4490
1!
1-
b11100000100000 8
#4495
0!
0-
#4500
1!
1-
b11100001000000 8
#4505
0!
0-
#4510
1!
1-
b11100001100000 8
#4515
0!
0-
#4520
1!
1-
b11100010000000 8
#4525
0!
0-
#4530
1!
1-
b11100010100000 8
#4535
0!
0-
#4540
1!
1-
b11100011000000 8
#4545
0!
0-
#4550
1!
1-
b11100011100000 8
#4555
0!
0-
#4560
1!
1-
b11100100000000 8
#4565
0!
0-
#4570
1!
1-
b11100100100000 8
#4575
0!
0-
#4580
1!
1-
b11100101000000 8
#4585
0!
0-
#4590
1!
1-
b11100101100000 8
#4595
0!
0-
#4600
1!
1-
b11100110000000 8
#4605
0!
0-
#4610
1!
1-
b11100110100000 8
#4615
0!
0-
#4620
1!
1-
b11100111000000 8
#4625
0!
0-
#4630
1!
1-
b11100111100000 8
#4635
0!
0-
#4640
1!
1-
b11101000000000 8
#4645
0!
0-
#4650
1!
1-
b11101000100000 8
#4655
0!
0-
#4660
1!
1-
b11101001000000 8
#4665
0!
0-
#4670
1!
1-
b11101001100000 8
#4675
0!
0-
#4680
1!
1-
b11101010000000 8
#4685
0!
0-
#4690
1!
1-
b11101010100000 8
#4695
0!
0-
#4700
1!
1-
b11101011000000 8
#4705
0!
0-
#4710
1!
1-
b11101011100000 8
#4715
0!
0-
#4720
1!
1-
b11101100000000 8
#4725
0!
0-
#4730
1!
1-
b11101100100000 8
#4735
0!
0-
#4740
1!
1-
b11101101000000 8
#4745
0!
0-
#4750
1!
1-
b11101101100000 8
#4755
0!
0-
#4760
1!
1-
b11101110000000 8
#4765
0!
0-
#4770
1!
1-
b11101110100000 8
#4775
0!
0-
#4780
1!
1-
b11101111000000 8
#4785
0!
0-
#4790
1!
1-
b11101111100000 8
#4795
0!
0-
#4800
1!
1-
b11110000000000 8
#4805
0!
0-
#4810
1!
1-
b11110000100000 8
#4815
0!
0-
#4820
1!
1-
b11110001000000 8
#4825
0!
0-
#4830
1!
1-
b11110001100000 8
#4835
0!
0-
#4840
1!
1-
b11110010000000 8
#4845
0!
0-
#4850
1!
1-
b11110010100000 8
#4855
0!
0-
#4860
1!
1-
b11110011000000 8
#4865
0!
0-
#4870
1!
1-
b11110011100000 8
#4875
0!
0-
#4880
1!
1-
b11110100000000 8
#4885
0!
0-
#4890
1!
1-
b11110100100000 8
#4895
0!
0-
#4900
1!
1-
b11110101000000 8
#4905
0!
0-
#4910
1!
1-
b11110101100000 8
#4915
0!
0-
#4920
1!
1-
b11110110000000 8
#4925
0!
0-
#4930
1!
1-
b11110110100000 8
#4935
0!
0-
#4940
1!
1-
b11110111000000 8
#4945
0!
0-
#4950
1!
1-
b11110111100000 8
#4955
0!
0-
#4960
1!
1-
b11111000000000 8
#4965
0!
0-
#4970
1!
1-
b11111000100000 8
#4975
0!
0-
#4980
1!
1-
b11111001000000 8
#4985
0!
0-
#4990
1!
1-
b11111001100000 8
#4995
0!
0-
#5000
1!
1-
b11111010000000 8
#5005
0!
0-
#5010
1!
1-
b11111010100000 8
#5015
0!
0-
