semester-modules/Hw03/SPI_mnrch_tb.vcd
$date
	Sun Oct 26 12:16:01 2025
$end
$version
	ModelSim Version 2020.1
$end
$timescale
	1ps
$end

$scope module SPI_mnrch_tb $end
$var reg 1 ! clk $end
$var reg 1 " rst_n $end
$var reg 1 # SS_n $end
$var reg 1 $ SCLK $end
$var reg 1 % MOSI $end
$var reg 1 & MISO $end
$var reg 1 ' wrt $end
$var reg 16 ( wt_data [15:0] $end
$var reg 1 ) done $end
$var reg 16 * rd_data [15:0] $end
$var reg 1 + INT $end
$var reg 16 , rx_data [15:0] $end

$scope task spi_trans $end
$upscope $end

$scope module monarch $end
$var wire 1 - clk $end
$var wire 1 . rst_n $end
$var reg 1 / SS_n $end
$var reg 1 0 SCLK $end
$var reg 1 1 MOSI $end
$var wire 1 2 MISO $end
$var wire 1 3 wrt $end
$var wire 1 4 wt_data [15] $end
$var wire 1 5 wt_data [14] $end
$var wire 1 6 wt_data [13] $end
$var wire 1 7 wt_data [12] $end
$var wire 1 8 wt_data [11] $end
$var wire 1 9 wt_data [10] $end
$var wire 1 : wt_data [9] $end
$var wire 1 ; wt_data [8] $end
$var wire 1 < wt_data [7] $end
$var wire 1 = wt_data [6] $end
$var wire 1 > wt_data [5] $end
$var wire 1 ? wt_data [4] $end
$var wire 1 @ wt_data [3] $end
$var wire 1 A wt_data [2] $end
$var wire 1 B wt_data [1] $end
$var wire 1 C wt_data [0] $end
$var reg 1 D done $end
$var reg 16 E rd_data [15:0] $end
$var reg 2 F state [1:0] $end
$var reg 2 G nxt_state [1:0] $end
$var reg 4 H SCLK_div [3:0] $end
$var reg 1 I ld_SCLK $end
$var reg 1 J shft $end
$var reg 1 K smpl $end
$var reg 5 L smpl_cnt [4:0] $end
$var reg 16 M shift_reg [15:0] $end
$upscope $end

$scope module iNEMO $end
$var wire 1 N SS_n $end
$var wire 1 O SCLK $end
$var wire 1 P MOSI $end
$var wire 1 Q MISO $end
$var reg 1 R INT $end
$var reg 2 S state [1:0] $end
$var reg 2 T nstate [1:0] $end
$var reg 16 U shft_reg_tx [15:0] $end
$var reg 16 V shft_reg_rx [15:0] $end
$var reg 4 W bit_cnt [3:0] $end
$var reg 1 X write_reg $end
$var reg 1 Y POR_n $end
$var reg 6 Z inert_ptr [5:0] $end
$var reg 1 [ internal_clk $end
$var reg 12 \ update_period [11:0] $end
$var reg 1 ] clr_INT $end
$var reg 1 ^ ld_tx_reg $end
$var reg 1 _ shft_tx $end
$var reg 1 ` init $end
$var reg 1 a set_write $end
$var reg 1 b clr_write $end
$var reg 8 c tx_data [7:0] $end
$var wire 1 d NEMO_setup $end

$scope function response $end
$var reg 8 e response [7:0] $end
$var reg 8 f in_byte [7:0] $end
$upscope $end
$upscope $end
$upscope $end
$enddefinitions $end
#0
$dumpvars
0!
0"
1#
1$
0%
z&
0'
b0 (
1)
b0 *
0+
1/
10
01
1D
b0 E
b0 F
b0 G
b1111 H
0I
0J
0K
b0 L
b0 M
0R
b0 S
b0 T
b0 U
b0 V
bx W
0X
0Y
b111111 Z
0[
b0 \
x]
0^
0_
0`
0a
xb
b0 c
bx e
bx f
bx ,
xd
0-
0.
z2
03
0C
0B
0A
0@
0?
0>
0=
0<
0;
0:
09
08
07
06
05
04
1N
1O
zQ
0P
$end
#5
1!
1-
#10
0!
0-
#15
1!
1-
#20
0!
0-
#25
1!
1-
#30
0!
0-
#35
1!
1-
1"
1.
#40
1[
0!
0-
#45
1!
1-
#50
0!
0-
#55
1!
1-
#60
0!
0-
#65
1!
1-
#70
0!
0-
#75
1!
1-
#80
0[
0!
0-
1Y
#85
1!
1-
#90
0!
0-
#95
1!
1-
#100
0!
0-
#105
1!
1-
#110
0!
0-
#115
1!
1-
#120
1[
0!
0-
#125
1!
1-
#130
0!
0-
#135
1!
1-
b1010010110100101 (
1C
1A
1>
1<
1;
19
16
14
#140
0!
0-
#145
1!
1-
1'
13
0D
1D
b1 G
1I
#150
0!
0-
#155
1!
1-
0'
03
b0 G
0I
0D
1D
b1011 H
b1010010110100101 M
b1 F
b1010010110100101 E
11
1%
b1010010110100101 *
1P
b1 G
0D
0/
0#
0)
0N
0Q
1`
b1 T
#160
0[
0!
0-
#165
1!
1-
b1100 H
#170
0!
0-
#175
1!
1-
b1101 H
#180
0!
0-
#185
1!
1-
b1110 H
#190
0!
0-
#195
1!
1-
b1111 H
#200
1[
0!
0-
#205
1!
1-
1J
b0 H
00
0$
0O
1/
0/
#210
0!
0-
#215
1!
1-
0J
b1 H
1/
0/
#220
0!
0-
#225
1!
1-
b10 H
#230
0!
0-
#235
1!
1-
b11 H
#240
0[
0!
0-
#245
1!
1-
b100 H
#250
0!
0-
#255
1!
1-
b101 H
#260
0!
0-
#265
1!
1-
b110 H
#270
0!
0-
#275
1!
1-
b111 H
#280
1[
0!
0-
#285
1!
1-
1K
b1 L
b1000 H
10
1$
1O
1/
0/
b1 V
b0 W
b1 S
0`
b0 T
1_
b1 T
#290
0!
0-
#295
1!
1-
0K
b1001 H
b10010110100101z M
b10010110100101z E
01
0%
b10010110100101z *
0P
#300
0!
0-
#305
1!
1-
b1010 H
#310
0!
0-
#315
1!
1-
b1011 H
#320
0[
0!
0-
#325
1!
1-
b1100 H
#330
0!
0-
#335
1!
1-
b1101 H
#340
0!
0-
#345
1!
1-
b1110 H
#350
0!
0-
#355
1!
1-
b1111 H
#360
1[
0!
0-
#365
1!
1-
1J
b0 H
00
0$
0O
1/
0/
#370
0!
0-
#375
1!
1-
0J
b1 H
1/
0/
#380
0!
0-
#385
1!
1-
b10 H
#390
0!
0-
#395
1!
1-
b11 H
#400
0[
0!
0-
#405
1!
1-
b100 H
#410
0!
0-
#415
1!
1-
b101 H
#420
0!
0-
#425
1!
1-
b110 H
#430
0!
0-
#435
1!
1-
b111 H
#440
1[
0!
0-
#445
1!
1-
1K
b10 L
b1000 H
10
1$
1O
1/
0/
b10 V
b1 W
0_
b0 T
1_
b1 T
#450
0!
0-
#455
1!
1-
0K
b1001 H
b10010110100101zz M
b10010110100101zz E
11
1%
b10010110100101zz *
1P
#460
0!
0-
#465
1!
1-
b1010 H
#470
0!
0-
#475
1!
1-
b1011 H
#480
0[
0!
0-
#485
1!
1-
b1100 H
#490
0!
0-
#495
1!
1-
b1101 H
#500
0!
0-
#505
1!
1-
b1110 H
#510
0!
0-
#515
1!
1-
b1111 H
#520
1[
0!
0-
#525
1!
1-
1J
b0 H
00
0$
0O
1/
0/
#530
0!
0-
#535
1!
1-
0J
b1 H
1/
0/
#540
0!
0-
#545
1!
1-
b10 H
#550
0!
0-
#555
1!
1-
b11 H
#560
0[
0!
0-
#565
1!
1-
b100 H
#570
0!
0-
#575
1!
1-
b101 H
#580
0!
0-
#585
1!
1-
b110 H
#590
0!
0-
#595
1!
1-
b111 H
#600
1[
0!
0-
#605
1!
1-
1K
b11 L
b1000 H
10
1$
1O
1/
0/
b101 V
b10 W
0_
b0 T
1_
b1 T
#610
0!
0-
#615
1!
1-
0K
b1001 H
b10110100101zzz M
b10110100101zzz E
01
0%
b10110100101zzz *
0P
#620
0!
0-
#625
1!
1-
b1010 H
#630
0!
0-
#635
1!
1-
b1011 H
#640
0[
0!
0-
#645
1!
1-
b1100 H
#650
0!
0-
#655
1!
1-
b1101 H
#660
0!
0-
#665
1!
1-
b1110 H
#670
0!
0-
#675
1!
1-
b1111 H
#680
1[
0!
0-
#685
1!
1-
1J
b0 H
00
0$
0O
1/
0/
#690
0!
0-
#695
1!
1-
0J
b1 H
1/
0/
#700
0!
0-
#705
1!
1-
b10 H
#710
0!
0-
#715
1!
1-
b11 H
#720
0[
0!
0-
#725
1!
1-
b100 H
#730
0!
0-
#735
1!
1-
b101 H
#740
0!
0-
#745
1!
1-
b110 H
#750
0!
0-
#755
1!
1-
b111 H
#760
1[
0!
0-
#765
1!
1-
1K
b100 L
b1000 H
10
1$
1O
1/
0/
b1010 V
b11 W
0_
b0 T
1_
b1 T
#770
0!
0-
#775
1!
1-
0K
b1001 H
b10110100101zzzz M
b10110100101zzzz E
b10110100101zzzz *
#780
0!
0-
#785
1!
1-
b1010 H
#790
0!
0-
#795
1!
1-
b1011 H
#800
0[
0!
0-
#805
1!
1-
b1100 H
#810
0!
0-
#815
1!
1-
b1101 H
#820
0!
0-
#825
1!
1-
b1110 H
#830
0!
0-
#835
1!
1-
b1111 H
#840
1[
0!
0-
#845
1!
1-
1J
b0 H
00
0$
0O
1/
0/
#850
0!
0-
#855
1!
1-
0J
b1 H
1/
0/
#860
0!
0-
#865
1!
1-
b10 H
#870
0!
0-
#875
1!
1-
b11 H
#880
0[
0!
0-
#885
1!
1-
b100 H
#890
0!
0-
#895
1!
1-
b101 H
#900
0!
0-
#905
1!
1-
b110 H
#910
0!
0-
#915
1!
1-
b111 H
#920
1[
0!
0-
#925
1!
1-
1K
b101 L
b1000 H
10
1$
1O
1/
0/
b10100 V
b100 W
0_
b0 T
1_
b1 T
#930
0!
0-
#935
1!
1-
0K
b1001 H
b10110100101zzzzz M
b10110100101zzzzz E
11
1%
b10110100101zzzzz *
1P
#940
0!
0-
#945
1!
1-
b1010 H
#950
0!
0-
#955
1!
1-
b1011 H
#960
0[
0!
0-
#965
1!
1-
b1100 H
#970
0!
0-
#975
1!
1-
b1101 H
#980
0!
0-
#985
1!
1-
b1110 H
#990
0!
0-
#995
1!
1-
b1111 H
#1000
1[
0!
0-
#1005
1!
1-
1J
b0 H
00
0$
0O
1/
0/
#1010
0!
0-
#1015
1!
1-
0J
b1 H
1/
0/
#1020
0!
0-
#1025
1!
1-
b10 H
#1030
0!
0-
#1035
1!
1-
b11 H
#1040
0[
0!
0-
#1045
1!
1-
b100 H
#1050
0!
0-
#1055
1!
1-
b101 H
#1060
0!
0-
#1065
1!
1-
b110 H
#1070
0!
0-
#1075
1!
1-
b111 H
#1080
1[
0!
0-
#1085
1!
1-
1K
b110 L
b1000 H
10
1$
1O
1/
0/
b101001 V
b101 W
0_
b0 T
1_
b1 T
#1090
0!
0-
#1095
1!
1-
0K
b1001 H
b110100101zzzzzz M
b110100101zzzzzz E
01
0%
b110100101zzzzzz *
0P
#1100
0!
0-
#1105
1!
1-
b1010 H
#1110
0!
0-
#1115
1!
1-
b1011 H
#1120
0[
0!
0-
#1125
1!
1-
b1100 H
#1130
0!
0-
#1135
1!
1-
b1101 H
#1140
0!
0-
#1145
1!
1-
b1110 H
#1150
0!
0-
#1155
1!
1-
b1111 H
#1160
1[
0!
0-
#1165
1!
1-
1J
b0 H
00
0$
0O
1/
0/
#1170
0!
0-
#1175
1!
1-
0J
b1 H
1/
0/
#1180
0!
0-
#1185
1!
1-
b10 H
#1190
0!
0-
#1195
1!
1-
b11 H
#1200
0[
0!
0-
#1205
1!
1-
b100 H
#1210
0!
0-
#1215
1!
1-
b101 H
#1220
0!
0-
#1225
1!
1-
b110 H
#1230
0!
0-
#1235
1!
1-
b111 H
#1240
1[
0!
0-
#1245
1!
1-
1K
b111 L
b1000 H
10
1$
1O
1/
0/
b1010010 V
b110 W
0_
b0 T
1_
b1 T
#1250
0!
0-
#1255
1!
1-
0K
b1001 H
b110100101zzzzzzz M
b110100101zzzzzzz E
11
1%
b110100101zzzzzzz *
1P
#1260
0!
0-
#1265
1!
1-
b1010 H
#1270
0!
0-
#1275
1!
1-
b1011 H
#1280
0[
0!
0-
#1285
1!
1-
b1100 H
#1290
0!
0-
#1295
1!
1-
b1101 H
#1300
0!
0-
#1305
1!
1-
b1110 H
#1310
0!
0-
#1315
1!
1-
b1111 H
#1320
1[
0!
0-
#1325
1!
1-
1J
b0 H
00
0$
0O
1/
0/
#1330
0!
0-
#1335
1!
1-
0J
b1 H
1/
0/
#1340
0!
0-
#1345
1!
1-
b10 H
#1350
0!
0-
#1355
1!
1-
b11 H
#1360
0[
0!
0-
#1365
1!
1-
b100 H
#1370
0!
0-
#1375
1!
1-
b101 H
#1380
0!
0-
#1385
1!
1-
b110 H
#1390
0!
0-
#1395
1!
1-
b111 H
#1400
1[
0!
0-
#1405
1!
1-
1K
b1000 L
b1000 H
10
1$
1O
1/
0/
b10100101 V
b111 W
0_
b0 T
1_
1^
b10100101 f
0]
bx c
b10 T
#1410
0!
0-
#1415
1!
1-
0K
b1001 H
b10100101zzzzzzzz M
b10100101zzzzzzzz E
b10100101zzzzzzzz *
#1420
0!
0-
#1425
1!
1-
b1010 H
#1430
0!
0-
#1435
1!
1-
b1011 H
#1440
0[
0!
0-
#1445
1!
1-
b1100 H
#1450
0!
0-
#1455
1!
1-
b1101 H
#1460
0!
0-
#1465
1!
1-
b1110 H
#1470
0!
0-
#1475
1!
1-
b1111 H
#1480
1[
0!
0-
#1485
1!
1-
1J
b0 H
00
0$
0O
1/
0/
bx00000000 U
xQ
#1490
0!
0-
#1495
1!
1-
0J
b1 H
1/
0/
#1500
0!
0-
#1505
1!
1-
b10 H
#1510
0!
0-
#1515
1!
1-
b11 H
#1520
0[
0!
0-
#1525
1!
1-
b100 H
#1530
0!
0-
#1535
1!
1-
b101 H
#1540
0!
0-
#1545
1!
1-
b110 H
#1550
0!
0-
#1555
1!
1-
b111 H
#1560
1[
0!
0-
#1565
1!
1-
1K
b1001 L
b1000 H
10
1$
1O
1/
0/
b101001011 V
b1000 W
b10 S
0^
0_
b0 c
b0 T
1_
b10 T
#1570
0!
0-
#1575
1!
1-
0K
b1001 H
b100101zzzzzzzzz M
b100101zzzzzzzzz E
01
0%
b100101zzzzzzzzz *
0P
#1580
0!
0-
#1585
1!
1-
b1010 H
#1590
0!
0-
#1595
1!
1-
b1011 H
#1600
0[
0!
0-
#1605
1!
1-
b1100 H
#1610
0!
0-
#1615
1!
1-
b1101 H
#1620
0!
0-
#1625
1!
1-
b1110 H
#1630
0!
0-
#1635
1!
1-
b1111 H
#1640
1[
0!
0-
#1645
1!
1-
1J
b0 H
00
0$
0O
1/
0/
bx000000000 U
#1650
0!
0-
#1655
1!
1-
0J
b1 H
1/
0/
#1660
0!
0-
#1665
1!
1-
b10 H
#1670
0!
0-
#1675
1!
1-
b11 H
#1680
0[
0!
0-
#1685
1!
1-
b100 H
#1690
0!
0-
#1695
1!
1-
b101 H
#1700
0!
0-
#1705
1!
1-
b110 H
#1710
0!
0-
#1715
1!
1-
b111 H
#1720
1[
0!
0-
#1725
1!
1-
1K
b1010 L
b1000 H
10
1$
1O
1/
0/
b1010010110 V
b1001 W
0_
b0 T
1_
b10 T
#1730
0!
0-
#1735
1!
1-
0K
b1001 H
b100101zzzzzzzzzz M
b100101zzzzzzzzzz E
11
1%
b100101zzzzzzzzzz *
1P
#1740
0!
0-
#1745
1!
1-
b1010 H
#1750
0!
0-
#1755
1!
1-
b1011 H
#1760
0[
0!
0-
#1765
1!
1-
b1100 H
#1770
0!
0-
#1775
1!
1-
b1101 H
#1780
0!
0-
#1785
1!
1-
b1110 H
#1790
0!
0-
#1795
1!
1-
b1111 H
#1800
1[
0!
0-
#1805
1!
1-
1J
b0 H
00
0$
0O
1/
0/
bx0000000000 U
#1810
0!
0-
#1815
1!
1-
0J
b1 H
1/
0/
#1820
0!
0-
#1825
1!
1-
b10 H
#1830
0!
0-
#1835
1!
1-
b11 H
#1840
0[
0!
0-
#1845
1!
1-
b100 H
#1850
0!
0-
#1855
1!
1-
b101 H
#1860
0!
0-
#1865
1!
1-
b110 H
#1870
0!
0-
#1875
1!
1-
b111 H
#1880
1[
0!
0-
#1885
1!
1-
1K
b1011 L
b1000 H
10
1$
1O
1/
0/
b10100101101 V
b1010 W
0_
b0 T
1_
b10 T
#1890
0!
0-
#1895
1!
1-
0K
b1001 H
b101zzzzzzzzzzz M
b101zzzzzzzzzzz E
01
0%
b101zzzzzzzzzzz *
0P
#1900
0!
0-
#1905
1!
1-
b1010 H
#1910
0!
0-
#1915
1!
1-
b1011 H
#1920
0[
0!
0-
#1925
1!
1-
b1100 H
#1930
0!
0-
#1935
1!
1-
b1101 H
#1940
0!
0-
#1945
1!
1-
b1110 H
#1950
0!
0-
#1955
1!
1-
b1111 H
#1960
1[
0!
0-
#1965
1!
1-
1J
b0 H
00
0$
0O
1/
0/
bx00000000000 U
#1970
0!
0-
#1975
1!
1-
0J
b1 H
1/
0/
#1980
0!
0-
#1985
1!
1-
b10 H
#1990
0!
0-
#1995
1!
1-
b11 H
#2000
0[
0!
0-
#2005
1!
1-
b100 H
#2010
0!
0-
#2015
1!
1-
b101 H
#2020
0!
0-
#2025
1!
1-
b110 H
#2030
0!
0-
#2035
1!
1-
b111 H
#2040
1[
0!
0-
#2045
1!
1-
1K
b1100 L
b1000 H
10
1$
1O
1/
0/
b101001011010 V
b1011 W
0_
b0 T
1_
b10 T
#2050
0!
0-
#2055
1!
1-
0K
b1001 H
b101zzzzzzzzzzzz M
b101zzzzzzzzzzzz E
b101zzzzzzzzzzzz *
#2060
0!
0-
#2065
1!
1-
b1010 H
#2070
0!
0-
#2075
1!
1-
b1011 H
#2080
0[
0!
0-
#2085
1!
1-
b1100 H
#2090
0!
0-
#2095
1!
1-
b1101 H
#2100
0!
0-
#2105
1!
1-
b1110 H
#2110
0!
0-
#2115
1!
1-
b1111 H
#2120
1[
0!
0-
#2125
1!
1-
1J
b0 H
00
0$
0O
1/
0/
bx000000000000 U
#2130
0!
0-
#2135
1!
1-
0J
b1 H
1/
0/
#2140
0!
0-
#2145
1!
1-
b10 H
#2150
0!
0-
#2155
1!
1-
b11 H
#2160
0[
0!
0-
#2165
1!
1-
b100 H
#2170
0!
0-
#2175
1!
1-
b101 H
#2180
0!
0-
#2185
1!
1-
b110 H
#2190
0!
0-
#2195
1!
1-
b111 H
#2200
1[
0!
0-
#2205
1!
1-
1K
b1101 L
b1000 H
10
1$
1O
1/
0/
b1010010110100 V
b1100 W
0_
b0 T
1_
b10 T
#2210
0!
0-
#2215
1!
1-
0K
b1001 H
b101zzzzzzzzzzzzz M
b101zzzzzzzzzzzzz E
11
1%
b101zzzzzzzzzzzzz *
1P
#2220
0!
0-
#2225
1!
1-
b1010 H
#2230
0!
0-
#2235
1!
1-
b1011 H
#2240
0[
0!
0-
#2245
1!
1-
b1100 H
#2250
0!
0-
#2255
1!
1-
b1101 H
#2260
0!
0-
#2265
1!
1-
b1110 H
#2270
0!
0-
#2275
1!
1-
b1111 H
#2280
1[
0!
0-
#2285
1!
1-
1J
b0 H
00
0$
0O
1/
0/
bx0000000000000 U
#2290
0!
0-
#2295
1!
1-
0J
b1 H
1/
0/
#2300
0!
0-
#2305
1!
1-
b10 H
#2310
0!
0-
#2315
1!
1-
b11 H
#2320
0[
0!
0-
#2325
1!
1-
b100 H
#2330
0!
0-
#2335
1!
1-
b101 H
#2340
0!
0-
#2345
1!
1-
b110 H
#2350
0!
0-
#2355
1!
1-
b111 H
#2360
1[
0!
0-
#2365
1!
1-
1K
b1110 L
b1000 H
10
1$
1O
1/
0/
b10100101101001 V
b1101 W
0_
b0 T
1_
b10 T
#2370
0!
0-
#2375
1!
1-
0K
b1001 H
b1zzzzzzzzzzzzzz M
b1zzzzzzzzzzzzzz E
01
0%
b1zzzzzzzzzzzzzz *
0P
#2380
0!
0-
#2385
1!
1-
b1010 H
#2390
0!
0-
#2395
1!
1-
b1011 H
#2400
0[
0!
0-
#2405
1!
1-
b1100 H
#2410
0!
0-
#2415
1!
1-
b1101 H
#2420
0!
0-
#2425
1!
1-
b1110 H
#2430
0!
0-
#2435
1!
1-
b1111 H
#2440
1[
0!
0-
#2445
1!
1-
1J
b0 H
00
0$
0O
1/
0/
bx00000000000000 U
#2450
0!
0-
#2455
1!
1-
0J
b1 H
1/
0/
#2460
0!
0-
#2465
1!
1-
b10 H
#2470
0!
0-
#2475
1!
1-
b11 H
#2480
0[
0!
0-
#2485
1!
1-
b100 H
#2490
0!
0-
#2495
1!
1-
b101 H
#2500
0!
0-
#2505
1!
1-
b110 H
#2510
0!
0-
#2515
1!
1-
b111 H
#2520
1[
0!
0-
#2525
1!
1-
1K
b1111 L
b1000 H
10
1$
1O
1/
0/
b101001011010010 V
b1110 W
0_
b0 T
1_
#2530
0!
0-
#2535
1!
1-
0K
b1001 H
b1zzzzzzzzzzzzzzz M
b1zzzzzzzzzzzzzzz E
11
1%
b1zzzzzzzzzzzzzzz *
1P
#2540
0!
0-
#2545
1!
1-
b1010 H
#2550
0!
0-
#2555
1!
1-
b1011 H
#2560
0[
0!
0-
#2565
1!
1-
b1100 H
#2570
0!
0-
#2575
1!
1-
b1101 H
#2580
0!
0-
#2585
1!
1-
b1110 H
#2590
0!
0-
#2595
1!
1-
b1111 H
#2600
1[
0!
0-
#2605
1!
1-
1J
b0 H
00
0$
0O
1/
0/
bx000000000000000 U
#2610
0!
0-
#2615
1!
1-
0J
b1 H
1/
0/
#2620
0!
0-
#2625
1!
1-
b10 H
#2630
0!
0-
#2635
1!
1-
b11 H
#2640
0[
0!
0-
#2645
1!
1-
b100 H
#2650
0!
0-
#2655
1!
1-
b101 H
#2660
0!
0-
#2665
1!
1-
b110 H
#2670
0!
0-
#2675
1!
1-
b111 H
#2680
1[
0!
0-
#2685
1!
1-
1K
b10000 L
b1000 H
10
1$
1O
1/
0/
b1010010110100101 V
b1111 W
b0 S
0_
1`
b1 T
#2690
0!
0-
#2695
1!
1-
0K
b1001 H
bz M
bz E
z1
z%
bz *
zP
#2700
0!
0-
#2705
1!
1-
b1010 H
#2710
0!
0-
#2715
1!
1-
b1011 H
#2720
0[
0!
0-
#2725
1!
1-
b1100 H
#2730
0!
0-
#2735
1!
1-
b1101 H
#2740
0!
0-
#2745
1!
1-
b1110 H
#2750
0!
0-
#2755
1!
1-
b1111 H
#2760
1[
0!
0-
#2765
1!
1-
1J
b0 H
00
0$
0O
1/
0/
b10 G
b0 U
0Q
#2770
0!
0-
#2775
1!
1-
0J
b1 H
b10 F
1/
1D
b0 G
1)
1#
1N
zQ
0`
b0 T
#2780
0!
0-
#2785
1!
1-
b0 L
b1111 H
b0 F
10
1$
1O
0D
1D
b0 W
